\relax 
\providecommand\hyper@newdestlabel[2]{}
\providecommand\HyperFirstAtBeginDocument{\AtBeginDocument}
\HyperFirstAtBeginDocument{\ifx\hyper@anchor\@undefined
\global\let\oldcontentsline\contentsline
\gdef\contentsline#1#2#3#4{\oldcontentsline{#1}{#2}{#3}}
\global\let\oldnewlabel\newlabel
\gdef\newlabel#1#2{\newlabelxx{#1}#2}
\gdef\newlabelxx#1#2#3#4#5#6{\oldnewlabel{#1}{{#2}{#3}}}
\AtEndDocument{\ifx\hyper@anchor\@undefined
\let\contentsline\oldcontentsline
\let\newlabel\oldnewlabel
\fi}
\fi}
\global\let\hyper@last\relax 
\gdef\HyperFirstAtBeginDocument#1{#1}
\providecommand\HyField@AuxAddToFields[1]{}
\providecommand\HyField@AuxAddToCoFields[2]{}
\citation{Be2016}
\citation{Koposov15,Bechtol15,DrlicaWagner15,Kim15,maglites2016,Carinas}
\citation{Jethwa16}
\citation{DOnghia16}
\citation{Kallivayalil06,Kallivayalil13}
\citation{Busha11}
\citation{Besla10}
\citation{Besla12,Diaz12}
\citation{Besla12,Besla13,Diaz11,Diaz12,Hammer15}
\newlabel{firstpage}{{}{1}{}{Doc-Start}{}}
\@writefile{toc}{\contentsline {section}{\numberline {1}Introduction}{1}{section.1}}
\citation{Irwin91,Kinman91}
\citation{Alves04}
\citation{Minniti03}
\citation{Feast68}
\citation{Saha10,Balbinot15}
\citation{Munoz2006}
\citation{Majewski09}
\citation{Diehl14}
\citation{Gaia16}
\citation{Be2016,Mackey16,Belokurov17,Deason17,Pieres2017,Mackey2018}
\citation{Be2016}
\citation{Be2016}
\citation{Deason2012}
\citation{Sersic68}
\citation{Xue2008}
\@writefile{toc}{\contentsline {section}{\numberline {2}Observations}{2}{section.2}}
\newlabel{sec:obs}{{2}{2}{Observations}{section.2}{}}
\@writefile{toc}{\contentsline {subsection}{\numberline {2.1}Radial velocities}{2}{subsection.2.1}}
\newlabel{sec:rvs}{{2.1}{2}{Radial velocities}{subsection.2.1}{}}
\citation{Be2016}
\citation{Rodgers81,Kinman94,Wilhelm99,Clewley2002,Xue2008,Vickers12}
\citation{Clewley2002}
\citation{A12}
\citation{pedregosa11}
\citation{Be2016}
\citation{Kinman94}
\citation{Jester2005}
\@writefile{toc}{\contentsline {subsection}{\numberline {2.2}BHB and BS separation}{3}{subsection.2.2}}
\newlabel{sec:bc_param}{{2.2}{3}{BHB and BS separation}{subsection.2.2}{}}
\newlabel{eq:border}{{3}{3}{BHB and BS separation}{equation.3}{}}
\@writefile{toc}{\contentsline {subsection}{\numberline {2.3}Heliocentric distances}{3}{subsection.2.3}}
\citation{Deason2011}
\citation{Deason2011}
\citation{Nidever08}
\citation{Deason2011,Xue2015,BlandHawthorn2016}
\@writefile{lof}{\contentsline {figure}{\numberline {1}{\ignorespaces Two examples of reduced spectra for S1 targets. The ID of each target is indicated at the top of each panel. Top panels show the spectra and the fitting of the six Balmer lines plus the continuum normalization. Bottom panels show the residuals from the fit. S1\nobreakspace  {}02 (left) is likely a BHB star while S1\nobreakspace  {}32 (right) is consistent with being a BS, based on the line width and shape of the Balmer lines (see Section\nobreakspace  {}\ref  {sec:bc_param}). The spectrum of S1\nobreakspace  {}32 also shows a prominent Ca \textsc  {II}\ line at $\sim 3930\tmspace  +\thinmuskip {.1667em} \r A$.}}{4}{figure.1}}
\newlabel{fig:fit_example}{{1}{4}{Two examples of reduced spectra for S1 targets. The ID of each target is indicated at the top of each panel. Top panels show the spectra and the fitting of the six Balmer lines plus the continuum normalization. Bottom panels show the residuals from the fit. S1~02 (left) is likely a BHB star while S1~32 (right) is consistent with being a BS, based on the line width and shape of the Balmer lines (see Section~\ref {sec:bc_param}). The spectrum of S1~32 also shows a prominent \caii \ line at $\sim 3930\, \AA $}{figure.1}{}}
\@writefile{lof}{\contentsline {figure}{\numberline {2}{\ignorespaces Spectral properties for BHB and BS stars from SDSS DR9. The left panel shows the effective temperature and surface gravity of $\simeq $ 2000 A-type stars. The middle panel shows the $b$ parameter of the S\'ersic profile for the Balmer lines in those spectra as a function of the effective temperature. BHBs tend to have smaller $b$ values, i.e., narrower lines, than BSs. The right panel shows the $b^{\prime }$ and $c^{\prime }$ parameters of the S\'ersic profile (see text) and the separation between BHBs and BSs as derived in this work (equation\nobreakspace  {}\ref  {eq:border}, dashed line), while at the top left, the mean error of the coefficients is represented by two errorbars.}}{4}{figure.2}}
\newlabel{fig:bhb_bs_sdss}{{2}{4}{Spectral properties for BHB and BS stars from SDSS DR9. The left panel shows the effective temperature and surface gravity of $\simeq $ 2000 A-type stars. The middle panel shows the $b$ parameter of the S\'ersic profile for the Balmer lines in those spectra as a function of the effective temperature. BHBs tend to have smaller $b$ values, i.e., narrower lines, than BSs. The right panel shows the $b^{\prime }$ and $c^{\prime }$ parameters of the S\'ersic profile (see text) and the separation between BHBs and BSs as derived in this work (equation~\ref {eq:border}, dashed line), while at the top left, the mean error of the coefficients is represented by two errorbars}{figure.2}{}}
\citation{Wilhelm99,Clewley2002,K11}
\citation{Be2016}
\@writefile{lof}{\contentsline {figure}{\numberline {3}{\ignorespaces Stellar classification among BHB and BS stars from our FORS2 observations. The top row shows the target stars color-coded by to the probability of being classified as BHBs. At the bottom row, the stars are colour-coded according to the substructure they tentatively belong to: blue for S1, green for S2, yellow for S3 and red for S4. Left panels show the $b^{\prime }$ and $c^{\prime }$ coefficients from the S\'ersic profile, and the boundary derived based on SDSS data. In the middle panels, the $c^{\prime }$ coefficient and the difference between the $b^{\prime }$ parameter and the corresponding $b^{\prime }$ from equation\nobreakspace  {}\ref  {eq:border} is shown. The rightmost panels present [$b^{\prime }$ - B(c)] against $V_{\rm  GSR}$. Stars marked with open squares are those which can be either BHB or BS as they are located just at the separation boundary between the two classes.}}{5}{figure.3}}
\newlabel{fig:cbparameters}{{3}{5}{Stellar classification among BHB and BS stars from our FORS2 observations. The top row shows the target stars color-coded by to the probability of being classified as BHBs. At the bottom row, the stars are colour-coded according to the substructure they tentatively belong to: blue for S1, green for S2, yellow for S3 and red for S4. Left panels show the $b^{\prime }$ and $c^{\prime }$ coefficients from the S\'ersic profile, and the boundary derived based on SDSS data. In the middle panels, the $c^{\prime }$ coefficient and the difference between the $b^{\prime }$ parameter and the corresponding $b^{\prime }$ from equation~\ref {eq:border} is shown. The rightmost panels present [$b^{\prime }$ - B(c)] against $V_{\rm GSR}$. Stars marked with open squares are those which can be either BHB or BS as they are located just at the separation boundary between the two classes}{figure.3}{}}
\@writefile{lof}{\contentsline {figure}{\numberline {4}{\ignorespaces Galactocentric distances for BHB (left) and BS (right) stars as a function of $L_{\rm  MS}$. The colours are the same as in Figure\nobreakspace  {}\ref  {fig:cbparameters}. Stars marked with open squares correspond to those that can be either BHB or BSs and therefore the corresponding distance in each case is considered. The dashed line marks the break radius at $\sim 35$ kpc. Stars with Galactocentric distances greater than this cut most likely belong to the LMC than to the MW halo.}}{5}{figure.4}}
\newlabel{fig:distances}{{4}{5}{Galactocentric distances for BHB (left) and BS (right) stars as a function of $L_{\rm MS}$. The colours are the same as in Figure~\ref {fig:cbparameters}. Stars marked with open squares correspond to those that can be either BHB or BSs and therefore the corresponding distance in each case is considered. The dashed line marks the break radius at $\sim 35$ kpc. Stars with Galactocentric distances greater than this cut most likely belong to the LMC than to the MW halo}{figure.4}{}}
\@writefile{toc}{\contentsline {subsection}{\numberline {2.4}Calcium as a proxy of metallicity}{5}{subsection.2.4}}
\newlabel{sec:calcium}{{2.4}{5}{Calcium as a proxy of metallicity}{subsection.2.4}{}}
\citation{Wilhelm99}
\citation{Be2016}
\citation{Lee08}
\citation{Wilhelm99}
\citation{Clewley2002}
\citation{B90,K11}
\citation{B90,K11}
\citation{K11}
\citation{SF11}
\citation{Brown06}
\@writefile{lof}{\contentsline {figure}{\numberline {5}{\ignorespaces The normalized spectrum of S3\nobreakspace  {}05 and S3\nobreakspace  {}17 in the spectral range around the Ca \textsc  {II}\ K line are shown, vertically offset for clarity. The Gaussian fitting to the Ca \textsc  {II}\ K line is shown in the solid red lines. The EW of the Ca \textsc  {II}\ K line is at the right side of each spectrum.}}{6}{figure.5}}
\newlabel{fig:ca_fit}{{5}{6}{The normalized spectrum of S3~05 and S3~17 in the spectral range around the \caii \ K line are shown, vertically offset for clarity. The Gaussian fitting to the \caii \ K line is shown in the solid red lines. The EW of the \caii \ K line is at the right side of each spectrum}{figure.5}{}}
\@writefile{lof}{\contentsline {figure}{\numberline {6}{\ignorespaces EW of the Ca \textsc  {II}\ K line as a function of the velocity $V_{\rm  GSR}$ for the four different substructures. BHB and BS stars are marked as filled and open circles, respectively. The stars can be tagged as ``metal-rich'' and ``metal-poor'' at the boundary of EW = 1.0\nobreakspace  {}{\r A} (vertical dashed line).}}{6}{figure.6}}
\newlabel{fig:ews_vgsr}{{6}{6}{EW of the \caii \ K line as a function of the velocity $V_{\rm GSR}$ for the four different substructures. BHB and BS stars are marked as filled and open circles, respectively. The stars can be tagged as ``metal-rich'' and ``metal-poor'' at the boundary of EW = 1.0~{\AA } (vertical dashed line)}{figure.6}{}}
\citation{Be2016}
\citation{Munoz2006}
\citation{Munoz2006}
\@writefile{lof}{\contentsline {figure}{\numberline {7}{\ignorespaces Equivalent widths of the Ca \textsc  {II}\ K line as a function of the effective temperature for A-type stars in SDSS DR9, colour-coded according to the metallicity [Fe/H]. From left to right, the logarithm of the surface gravity ranges are: 2.8 $< \qopname  \relax o{log}{(g_s)} <$3.5; 2.8$< \qopname  \relax o{log}{(g_s)} <$3.5 (BHB star candidates); 4.0 $< \qopname  \relax o{log}{(g_s)} <$ 4.6 (BS star candidates). For a given temperature, the scatter in the EW of Ca is due to the metallicity difference.}}{7}{figure.7}}
\newlabel{fig:ca_teff_feh}{{7}{7}{Equivalent widths of the \caii \ K line as a function of the effective temperature for A-type stars in SDSS DR9, colour-coded according to the metallicity [Fe/H]. From left to right, the logarithm of the surface gravity ranges are: 2.8 $< \log {(g_s)} <$3.5; 2.8$< \log {(g_s)} <$3.5 (BHB star candidates); 4.0 $< \log {(g_s)} <$ 4.6 (BS star candidates). For a given temperature, the scatter in the EW of Ca is due to the metallicity difference}{figure.7}{}}
\@writefile{lof}{\contentsline {figure}{\numberline {8}{\ignorespaces Top panels: Equivalent width of Ca \textsc  {II}\ K line versus metallicity [Fe/H] in the same three surface gravity ranges as in Figure\nobreakspace  {}\ref  {fig:ca_teff_feh}. The solid and dashed lines correspond to [Fe/H] as a function of the Ca EW relations derived for BHB and BS stars. Bottom panels show the residuals of the fit, including an additional colour term, as a function of the $(g-r)$ colour, in the same three surface gravity ranges.}}{7}{figure.8}}
\newlabel{fig:ca_feh_fitlines}{{8}{7}{Top panels: Equivalent width of \caii \ K line versus metallicity [Fe/H] in the same three surface gravity ranges as in Figure~\ref {fig:ca_teff_feh}. The solid and dashed lines correspond to [Fe/H] as a function of the Ca EW relations derived for BHB and BS stars. Bottom panels show the residuals of the fit, including an additional colour term, as a function of the $(g-r)$ colour, in the same three surface gravity ranges}{figure.8}{}}
\@writefile{toc}{\contentsline {section}{\numberline {3}The LMC/SMC connection}{7}{section.3}}
\newlabel{sec:lmc_smc}{{3}{7}{The LMC/SMC connection}{section.3}{}}
\@writefile{lot}{\contentsline {table}{\numberline {1}{\ignorespaces }}{8}{table.1}}
\newlabel{tab:targets}{{1}{8}{}{table.1}{}}
\citation{Munoz2006}
\citation{Munoz2006}
\citation{MoniBidin17}
\citation{MoniBidin17}
\@writefile{lof}{\contentsline {figure}{\numberline {9}{\ignorespaces Spatial distribution in Magellanic coordinates (L${}_{\rm  MS}$, B${}_{\rm  MS}$) of BHB stars from the DES survey with our target stars overplotted with filled circles for BHB and open circles for BS stars. S1 stars with low and high relative metallicity are in cyan and blue, while S2, S3 and S4 stars are in green, yellow and red colours, respectively. The position of the LMC and SMC are marked with star symbols and labelled accordingly.}}{9}{figure.9}}
\newlabel{fig:lms_bms}{{9}{9}{Spatial distribution in Magellanic coordinates (L${}_{\rm MS}$, B${}_{\rm MS}$) of BHB stars from the DES survey with our target stars overplotted with filled circles for BHB and open circles for BS stars. S1 stars with low and high relative metallicity are in cyan and blue, while S2, S3 and S4 stars are in green, yellow and red colours, respectively. The position of the LMC and SMC are marked with star symbols and labelled accordingly}{figure.9}{}}
\citation{Munoz2006}
\citation{MoniBidin17}
\citation{Munoz2006}
\citation{MoniBidin17}
\citation{Deason2012}
\citation{Deason2012,Brown10}
\@writefile{lot}{\contentsline {table}{\numberline {2}{\ignorespaces }}{10}{table.2}}
\newlabel{tab:s1_feh}{{2}{10}{}{table.2}{}}
\@writefile{lof}{\contentsline {figure}{\numberline {10}{\ignorespaces Phase-space distribution of the Magellanic BHB (filled circles) and BS (open circles) stars. The colours are the same as in Figure\nobreakspace  {}\ref  {fig:lms_bms}. The dashed line shows the projected LMC's velocity vector onto the line of sight crossing the LMC halo at $L_{\rm  MS} = 0\hbox {$^\circ $}$ while the dotted line marks the expected GSR velocity for MW stars. The open and filled stars mark the position of the LMC and SMC, respectively. The top panel shows the BHBs and distant BSs for the four streams, while the bottom panel shows those BS stars with smaller distances, and that most likely belong to the MW halo. Black open triangles correspond to giant stars in the 332 km s$^{-1}$ group identified by \citet  {Munoz2006}, while the open rightwards-pointing triangles are young stars in the periphery of the LMC detected by \citet  {MoniBidin17}.}}{10}{figure.10}}
\newlabel{fig:lms_vgsr}{{10}{10}{Phase-space distribution of the Magellanic BHB (filled circles) and BS (open circles) stars. The colours are the same as in Figure~\ref {fig:lms_bms}. The dashed line shows the projected LMC's velocity vector onto the line of sight crossing the LMC halo at $L_{\rm MS} = 0\degr $ while the dotted line marks the expected GSR velocity for MW stars. The open and filled stars mark the position of the LMC and SMC, respectively. The top panel shows the BHBs and distant BSs for the four streams, while the bottom panel shows those BS stars with smaller distances, and that most likely belong to the MW halo. Black open triangles correspond to giant stars in the 332 km s$^{-1}$ group identified by \citet {Munoz2006}, while the open rightwards-pointing triangles are young stars in the periphery of the LMC detected by \citet {MoniBidin17}}{figure.10}{}}
\citation{Clewley2002}
\citation{Haschke12}
\citation{Haschke12}
\citation{Jethwa16}
\citation{Mackey16}
\citation{Jethwa16}
\citation{Besla10,Olsen11,Belokurov17,Deason17}
\citation{Jethwa16}
\citation{Jethwa16}
\citation{Besla10}
\citation{Belokurov17}
\citation{Jethwa16}
\citation{Jethwa16}
\citation{Erkal16a}
\@writefile{toc}{\contentsline {subsection}{\numberline {3.1}Comparison with simulations}{11}{subsection.3.1}}
\newlabel{sec:simulations}{{3.1}{11}{Comparison with simulations}{subsection.3.1}{}}
\citation{Jethwa16}
\citation{Jethwa16}
\citation{Be2016}
\citation{Be2016}
\citation{Mackey16}
\@writefile{lof}{\contentsline {figure}{\numberline {11}{\ignorespaces Metallicity distribution of BHB and BS stars in the MCs. Left: [Fe/H] distribution of BHB (grey filled bars) and BS (red unfilled bars) samples, irrespective of their possible association with the LMC or SMC. Middle: Same stars as in the left panel but divided into four subsamples: BHB and BS stars likely belonging to the LMC (grey filled and hatched bars, respectively), BHB (red unfilled bars) and BS (red dashed-line bars) stars likely associated to the SMC. Right: Metallicity distribution for the same stars according to the association to the LMC (grey filled bars) or the SMC (red unfilled bars), irrespective of their stellar classification.}}{12}{figure.11}}
\newlabel{fig:feh_histograms}{{11}{12}{Metallicity distribution of BHB and BS stars in the MCs. Left: [Fe/H] distribution of BHB (grey filled bars) and BS (red unfilled bars) samples, irrespective of their possible association with the LMC or SMC. Middle: Same stars as in the left panel but divided into four subsamples: BHB and BS stars likely belonging to the LMC (grey filled and hatched bars, respectively), BHB (red unfilled bars) and BS (red dashed-line bars) stars likely associated to the SMC. Right: Metallicity distribution for the same stars according to the association to the LMC (grey filled bars) or the SMC (red unfilled bars), irrespective of their stellar classification}{figure.11}{}}
\@writefile{toc}{\contentsline {section}{\numberline {4}Discussion and Conclusions}{12}{section.4}}
\newlabel{sec:dandc}{{4}{12}{Discussion and Conclusions}{section.4}{}}
\@writefile{lof}{\contentsline {figure}{\numberline {12}{\ignorespaces Phase-space distribution for LMC (top) and SMC (middle and bottom) debris, based on the N-body simulations of \cite {Jethwa16}. Middle and bottom panels show the results when the DF by the LMC on the SMC is included and when it is not, respectively. The top panel shows all our Magellanic BHB and BS stars that seem to follow the LMC's halo velocity trend (dashed line): i.e., all S1 stars and S2, S3 and S4 stars with V${}_{\rm  GSR} <$\nobreakspace  {}0\nobreakspace  {}km\nobreakspace  {}s${}^{-1}$, while middle and bottom panels show BHB and BS stars from S2, S3 and S4 with V${}_{\rm  GSR} >$\nobreakspace  {}0\nobreakspace  {}km\nobreakspace  {}s${}^{-1}$.}}{13}{figure.12}}
\newlabel{fig:simulations}{{12}{13}{Phase-space distribution for LMC (top) and SMC (middle and bottom) debris, based on the N-body simulations of \protect \cite {Jethwa16}. Middle and bottom panels show the results when the DF by the LMC on the SMC is included and when it is not, respectively. The top panel shows all our Magellanic BHB and BS stars that seem to follow the LMC's halo velocity trend (dashed line): i.e., all S1 stars and S2, S3 and S4 stars with V${}_{\rm GSR} <$~0~km~s${}^{-1}$, while middle and bottom panels show BHB and BS stars from S2, S3 and S4 with V${}_{\rm GSR} >$~0~km~s${}^{-1}$}{figure.12}{}}
\@writefile{lof}{\contentsline {figure}{\numberline {13}{\ignorespaces {\it  Top panel}: Distribution of minimum distance to the LMC for 1000 particles, in 150 realizations of proper motion values from the simulations of \cite {Jethwa16}, for those including and not including the DF effect of the LMC on the SMC debris particles (solid and dashed lines, respectively). {\it  Middle and bottom panels}: contour density of SMC debris particles for simulations with and without LMC-SMC DF included. Red, green and blue contours correspond to particles which reach a minimum distance to the LMC, at a given point of their orbits, of less than 25 kpc, between 25 to 50 kpc and greater than 50 kpc, respectively.}}{13}{figure.13}}
\newlabel{fig:mindistance}{{13}{13}{{\it Top panel}: Distribution of minimum distance to the LMC for 1000 particles, in 150 realizations of proper motion values from the simulations of \protect \cite {Jethwa16}, for those including and not including the DF effect of the LMC on the SMC debris particles (solid and dashed lines, respectively). {\it Middle and bottom panels}: contour density of SMC debris particles for simulations with and without LMC-SMC DF included. Red, green and blue contours correspond to particles which reach a minimum distance to the LMC, at a given point of their orbits, of less than 25 kpc, between 25 to 50 kpc and greater than 50 kpc, respectively}{figure.13}{}}
\bibstyle{mnras}
\bibdata{references}
\bibcite{A12}{{1}{2012}{{{Ahn} et~al.}}{{{Ahn} et~al.,}}}
\bibcite{Alves04}{{2}{2004}{{{Alves}}}{{{Alves}}}}
\bibcite{Balbinot15}{{3}{2015}{{{Balbinot} et~al.}}{{{Balbinot} et~al.,}}}
\bibcite{Bechtol15}{{4}{2015}{{{Bechtol} et~al.}}{{{Bechtol} et~al.,}}}
\bibcite{B90}{{5}{1990}{{{Beers}}}{{{Beers}}}}
\bibcite{Be2016}{{6}{2016}{{{Belokurov} \& {Koposov}}}{{{Belokurov} \& {Koposov}}}}
\bibcite{Belokurov17}{{7}{2017}{{{Belokurov} et~al.}}{{{Belokurov}, {Erkal}, {Deason}, {Koposov}, {De Angeli}, {Evans}, {Fraternali} \& {Mackey}}}}
\bibcite{Besla10}{{8}{2010}{{{Besla} et~al.}}{{{Besla}, {Kallivayalil}, {Hernquist}, {van der Marel}, {Cox} \& {Kere{\v s}}}}}
\bibcite{Besla12}{{9}{2012}{{{Besla} et~al.}}{{{Besla}, {Kallivayalil}, {Hernquist}, {van der Marel}, {Cox} \& {Kere{\v s}}}}}
\bibcite{Besla13}{{10}{2013}{{{Besla} et~al.}}{{{Besla}, {Hernquist} \& {Loeb}}}}
\bibcite{BlandHawthorn2016}{{11}{2016}{{{Bland-Hawthorn} \& {Gerhard}}}{{{Bland-Hawthorn} \& {Gerhard}}}}
\bibcite{Brown06}{{12}{2006}{{{Brown} et~al.}}{{{Brown}, {Geller}, {Kenyon} \& {Kurtz}}}}
\bibcite{Brown10}{{13}{2010}{{{Brown} et~al.}}{{{Brown}, {Geller}, {Kenyon} \& {Diaferio}}}}
\bibcite{Busha11}{{14}{2011}{{{Busha} et~al.}}{{{Busha}, {Marshall}, {Wechsler}, {Klypin} \& {Primack}}}}
\bibcite{Clewley2002}{{15}{2002}{{{Clewley} et~al.}}{{{Clewley}, {Warren}, {Hewett}, {Norris}, {Peterson} \& {Evans}}}}
\bibcite{DOnghia16}{{16}{2016}{{{D'Onghia} \& {Fox}}}{{{D'Onghia} \& {Fox}}}}
\bibcite{Deason2011}{{17}{2011}{{{Deason} et~al.}}{{{Deason}, {Belokurov} \& {Evans}}}}
\bibcite{Deason2012}{{18}{2012}{{{Deason} et~al.}}{{{Deason} et~al.,}}}
\bibcite{Deason17}{{19}{2017}{{{Deason} et~al.}}{{{Deason}, {Belokurov}, {Erkal}, {Koposov} \& {Mackey}}}}
\bibcite{Diaz11}{{20}{2011}{{{Diaz} \& {Bekki}}}{{{Diaz} \& {Bekki}}}}
\bibcite{Diaz12}{{21}{2012}{{{Diaz} \& {Bekki}}}{{{Diaz} \& {Bekki}}}}
\bibcite{Diehl14}{{22}{2014}{{{Diehl} et~al.}}{{{Diehl} et~al.,}}}
\bibcite{DrlicaWagner15}{{23}{2015}{{{Drlica-Wagner} et~al.}}{{{Drlica-Wagner} et~al.,}}}
\bibcite{maglites2016}{{24}{2016}{{{Drlica-Wagner} et~al.}}{{{Drlica-Wagner} et~al.,}}}
\bibcite{Erkal16a}{{25}{2016}{{{Erkal} et~al.}}{{{Erkal}, {Sanders} \& {Belokurov}}}}
\bibcite{Feast68}{{26}{1968}{{{Feast}}}{{{Feast}}}}
\bibcite{Gaia16}{{27}{2016}{{{Gaia Collaboration} et~al.}}{{{Gaia Collaboration} et~al.,}}}
\bibcite{Hammer15}{{28}{2015}{{{Hammer} et~al.}}{{{Hammer}, {Yang}, {Flores}, {Puech} \& {Fouquet}}}}
\bibcite{Haschke12}{{29}{2012}{{{Haschke} et~al.}}{{{Haschke}, {Grebel}, {Duffau} \& {Jin}}}}
\bibcite{Irwin91}{{30}{1991}{{{Irwin}}}{{{Irwin}}}}
\bibcite{Jester2005}{{31}{2005}{{{Jester} et~al.}}{{{Jester} et~al.,}}}
\bibcite{Jethwa16}{{32}{2016}{{{Jethwa} et~al.}}{{{Jethwa}, {Erkal} \& {Belokurov}}}}
\bibcite{Kallivayalil06}{{33}{2006}{{{Kallivayalil} et~al.}}{{{Kallivayalil}, {van der Marel}, {Alcock}, {Axelrod}, {Cook}, {Drake} \& {Geha}}}}
\bibcite{Kallivayalil13}{{34}{2013}{{{Kallivayalil} et~al.}}{{{Kallivayalil}, {van der Marel}, {Besla}, {Anderson} \& {Alcock}}}}
\bibcite{Kim15}{{35}{2015}{{{Kim} \& {Jerjen}}}{{{Kim} \& {Jerjen}}}}
\bibcite{K11}{{36}{2011}{{{Kinman} \& {Brown}}}{{{Kinman} \& {Brown}}}}
\bibcite{Kinman91}{{37}{1991}{{{Kinman} et~al.}}{{{Kinman}, {Stryker}, {Hesser}, {Graham}, {Walker}, {Hazen} \& {Nemec}}}}
\bibcite{Kinman94}{{38}{1994}{{{Kinman} et~al.}}{{{Kinman}, {Suntzeff} \& {Kraft}}}}
\bibcite{Koposov15}{{39}{2015}{{{Koposov} et~al.}}{{{Koposov} et~al.,}}}
\bibcite{Lee08}{{40}{2008}{{{Lee} et~al.}}{{{Lee} et~al.,}}}
\bibcite{Mackey16}{{41}{2016}{{{Mackey} et~al.}}{{{Mackey}, {Koposov}, {Erkal}, {Belokurov}, {Da Costa} \& {G{\'o}mez}}}}
\bibcite{Mackey2018}{{42}{2018}{{{Mackey} et~al.}}{{{Mackey}, {Koposov}, {Da Costa}, {Belokurov}, {Erkal} \& {Kuzma}}}}
\bibcite{Majewski09}{{43}{2009}{{{Majewski} et~al.}}{{{Majewski}, {Nidever}, {Mu{\~n}oz}, {Patterson}, {Kunkel} \& {Carlin}}}}
\bibcite{Minniti03}{{44}{2003}{{{Minniti} et~al.}}{{{Minniti}, {Borissova}, {Rejkuba}, {Alves}, {Cook} \& {Freeman}}}}
\bibcite{MoniBidin17}{{45}{2017}{{{Moni Bidin} et~al.}}{{{Moni Bidin}, {Casetti-Dinescu}, {Girard}, {Zhang}, {M{\'e}ndez}, {Vieira}, {Korchagin} \& {van Altena}}}}
\bibcite{Munoz2006}{{46}{2006}{{{Mu{\~n}oz} et~al.}}{{{Mu{\~n}oz} et~al.,}}}
\bibcite{Nidever08}{{47}{2008}{{{Nidever} et~al.}}{{{Nidever}, {Majewski} \& {Butler Burton}}}}
\bibcite{Olsen11}{{48}{2011}{{{Olsen} et~al.}}{{{Olsen}, {Zaritsky}, {Blum}, {Boyer} \& {Gordon}}}}
\bibcite{pedregosa11}{{49}{2011}{{Pedregosa et~al.}}{{Pedregosa et~al.,}}}
\bibcite{Pieres2017}{{50}{2017}{{{Pieres} et~al.}}{{{Pieres} et~al.,}}}
\bibcite{Rodgers81}{{51}{1981}{{{Rodgers} et~al.}}{{{Rodgers}, {Harding} \& {Sadler}}}}
\bibcite{Saha10}{{52}{2010}{{{Saha} et~al.}}{{{Saha} et~al.,}}}
\bibcite{SF11}{{53}{2011}{{{Schlafly} \& {Finkbeiner}}}{{{Schlafly} \& {Finkbeiner}}}}
\bibcite{Sersic68}{{54}{1968}{{{S{\'e}rsic}}}{{{S{\'e}rsic}}}}
\bibcite{Carinas}{{55}{2018}{{{Torrealba} et~al.}}{{{Torrealba} et~al.,}}}
\bibcite{Vickers12}{{56}{2012}{{{Vickers} et~al.}}{{{Vickers}, {Grebel} \& {Huxor}}}}
\bibcite{Wilhelm99}{{57}{1999}{{{Wilhelm} et~al.}}{{{Wilhelm}, {Beers} \& {Gray}}}}
\bibcite{Xue2008}{{58}{2008}{{{Xue} et~al.}}{{{Xue} et~al.,}}}
\bibcite{Xue2015}{{59}{2015}{{{Xue} et~al.}}{{{Xue}, {Rix}, {Ma}, {Morrison}, {Bovy}, {Sesar} \& {Janesh}}}}
\@writefile{toc}{\contentsline {section}{\numberline {A}EW Ca and [Fe/H] relations}{14}{section.A1}}
\newlabel{feh_bhb}{{A1}{15}{EW Ca and [Fe/H] relations}{equation.A1.1}{}}
\newlabel{feh_bs}{{A2}{15}{EW Ca and [Fe/H] relations}{equation.A1.1}{}}
\@writefile{toc}{\contentsline {section}{\numberline {B}Boundaries of the BHB selection box}{15}{section.A2}}
\newlabel{sec:app2}{{B}{15}{Boundaries of the BHB selection box}{section.A2}{}}
\newlabel{lastpage}{{B}{15}{Boundaries of the BHB selection box}{table.A2.1}{}}
\@writefile{lot}{\contentsline {table}{\numberline {B1}{\ignorespaces Boundaries of the BHB selection box}}{16}{table.A2.1}}
\newlabel{tab:cmd_bhb}{{B1}{16}{Boundaries of the BHB selection box}{table.A2.1}{}}
